[
  {
    "provider_name": "Figma",
    "provider_url": "https://www.figma.com",
    "endpoints": [
      {
        "schemes": [
          "https://www.figma.com/file/*"
        ],
        "url": "https://www.figma.com/api/oembed",
        "discovery": true
      }
    ]
  },
  {
    "provider_name": "Canva",
    "provider_url": "https://www.canva.com",
    "endpoints": [
      {
        "schemes": [
          "https://www.canva.com/design/*/view"
        ],
        "url": "https://www.canva.com/_oembed",
        "discovery": true
      }
    ]
  }
]
